In-Class-Ex-09
…
# A tibble: 839 x 3
    from    to weight
   <dbl> <dbl>  <int>
 1     1     2     21
 2     1     3     21
 3     1     4     21
 4     1     5     21
 5     1     6     21
 6     1     7     21
 7     1     8     15
 8     1     9     15
 9     1    10     15
10     1    11     15
# ... with 829 more rows
